﻿ID,Name,Beschreibung
1,Korrosionsbeständigkeit,Bauteil muss Korrosionsfest sein
2,Grundsätzliche Tolleranz, Bauteil muss der Tolleranzklasse ISO 2768-2 I entsprechen
3,Material, Bauteil muss aus NickelAlloy IN718 hergestellt werden
4,Dauerfestigkeit, Bauteil muss 60.000 Betriebsstunden bestehen.
5,Wartbarkeit, Bauteil muss reparierbei sein.
6,Zuverlässigkeit, Aussfallwahrscheinlichkeit < 0.0001%
7,Korrosionsbeständigkeit,Bauteil muss Korrosionsfest sein
8,Grundsätzliche Tolleranz, Bauteil muss der Tolleranzklasse ISO 2768-2 H entsprechen
9,Material, Bauteil muss aus NickelAlloy IN718 hergestellt werden
10,Dauerfestigkeit, Bauteil muss 100.000 Betriebsstunden bestehen.
11,Wartbarkeit, Bauteil muss reparierbei sein.
12,Zuverlässigkeit, Aussfallwahrscheinlichkeit < 0.0002%
13,Korrosionsbeständigkeit,Bauteil muss Korrosionsfest sein
14,Grundsätzliche Tolleranz, Bauteil muss der Tolleranzklasse ISO 2768-2 I entsprechen
15,Material, Bauteil muss aus NickelAlloy IN718 hergestellt werden
16,Dauerfestigkeit, Bauteil muss 50.000 Betriebsstunden bestehen.
17,Wartbarkeit, Bauteil muss reparierbei sein.
18,Zuverlässigkeit, Aussfallwahrscheinlichkeit < 0.0003%
19,Korrosionsbeständigkeit,Bauteil muss Korrosionsfest sein
20,Grundsätzliche Tolleranz, Bauteil muss der Tolleranzklasse ISO 2768-2 H entsprechen
21,Material, Bauteil muss aus NickelAlloy IN718 hergestellt werden
22,Dauerfestigkeit, Bauteil muss 45.000 Betriebsstunden bestehen.
23,Wartbarkeit, Bauteil muss reparierbei sein.
24,Zuverlässigkeit, Aussfallwahrscheinlichkeit < 0.0004%
25,Korrosionsbeständigkeit,Bauteil muss Korrosionsfest sein
26,Grundsätzliche Tolleranz, Bauteil muss der Tolleranzklasse ISO 2768-2 H entsprechen
27,Material, Bauteil muss aus NickelAlloy IN718 hergestellt werden
28,Dauerfestigkeit, Bauteil muss 45.000 Betriebsstunden bestehen.
29,Wartbarkeit, Bauteil muss reparierbei sein.
30,Zuverlässigkeit, Aussfallwahrscheinlichkeit < 0.0005%
31,Korrosionsbeständigkeit,Bauteil muss Korrosionsfest sein
32,Grundsätzliche Tolleranz, Bauteil muss der Tolleranzklasse ISO 2768-2 H entsprechen
33,Material, Bauteil muss aus NickelAlloy IN718 hergestellt werden
34,Dauerfestigkeit, Bauteil muss 45.000 Betriebsstunden bestehen.
35,Wartbarkeit, Bauteil muss reparierbei sein.
36,Zuverlässigkeit, Aussfallwahrscheinlichkeit < 0.0006%
37,Korrosionsbeständigkeit,Bauteil muss Korrosionsfest sein
38,Grundsätzliche Tolleranz, Bauteil muss der Tolleranzklasse ISO 2768-2 H entsprechen
39,Material, Bauteil muss aus NickelAlloy IN718 hergestellt werden
40,Dauerfestigkeit, Bauteil muss 45.000 Betriebsstunden bestehen.
41,Wartbarkeit, Bauteil muss reparierbei sein.
42,Zuverlässigkeit, Aussfallwahrscheinlichkeit < 0.0007%
43,Korrosionsbeständigkeit,Bauteil muss Korrosionsfest sein
44,Grundsätzliche Tolleranz, Bauteil muss der Tolleranzklasse ISO 2768-2 H entsprechen
45,Material, Bauteil muss aus NickelAlloy IN718 hergestellt werden
46,Dauerfestigkeit, Bauteil muss 45.000 Betriebsstunden bestehen.
47,Wartbarkeit, Bauteil muss reparierbei sein.
48,Zuverlässigkeit, Aussfallwahrscheinlichkeit < 0.0008%