﻿ID,Pfad
1,https:\\nowhere\example\CAD_Model1
2,https:\\nowhere\example\CAD_Model2
3,https:\\nowhere\example\CAD_Model3
4,https:\\nowhere\example\CAD_Model4
5,https:\\nowhere\example\CAD_Model5
6,https:\\nowhere\example\CAD_Model6
7,https:\\nowhere\example\CAD_Model7
8,https:\\nowhere\example\CAD_Model8